FEES GL Transfer Batch Report ,Transfer name : FE2011,,Cost centre : All,,Account code : All,,Activity code : All 
Batch,Student No,Student Name,Sponsor,Effective Date,Dr Cost Centre,Dr Account Code,Dr Activity Code,Cr Cost Centre,Cr Account Code,Cr Activity Code,Value
173461,A00018746,Student1 Perry,,19-SEP-2017,1330,1250,A123456,7530,2100,A201218,2312
173461,A00018746,Student1 Perry,,19-SEP-2017,1330,1250,A123456,7530,2100,A201218,2312
173461,A00018746,Student1 Perry,,19-SEP-2017,1330,1250,A123456,7530,2100,A201218,2312
173461,A00018746,Student1 Perry,,19-SEP-2017,1330,1250,A123456,7530,2100,A201218,2312
173461,A00018746,Student1 Perry,,19-SEP-2017,1330,1250,A123456,7530,2100,A201218,2312
173461,A00018746,Student1 Perry,,19-SEP-2017,1330,1250,A123456,7530,2100,A201218,2312
173461,A00018746,Student1 Perry,,19-SEP-2017,1330,1250,A123456,7530,2100,A201218,2312
173461,A00018746,Student1 Perry,,19-SEP-2017,1330,1250,A123456,7530,2100,A201218,2312
173461,A00018746,Student1 Perry,,19-SEP-2017,1330,1250,A123456,7530,2100,A201218,2312
173461,A00018746,Student1 Perry,,19-SEP-2017,1330,1250,A123456,7530,2100,A201218,2312
173461,A00018746,Student1 Perry,,19-SEP-2017,1330,1250,A123456,7530,2100,A201218,2312
173461,A00018746,Student1 Perry,,19-SEP-2017,1330,1250,A123456,7530,2100,A201218,2312
173461,A00018746,Student1 Perry,,19-SEP-2017,1330,1250,A123456,7530,2100,A201218,2312
173461,A00018746,Student1 Perry,,19-SEP-2017,1330,1250,A123456,7530,2100,A201218,2312
173461,A00018746,Student1 Perry,,19-SEP-2017,1330,1250,A123456,7530,2100,A201218,2312
173461,A00018746,Student1 Perry,,19-SEP-2017,1330,1250,A123456,7530,2100,A201218,2312
173462,A00018747,PGStudent Perry,,20-SEP-2017,1430,1250,A123456,7530,2100,A201218,50
173462,A00018747,PGStudent Perry,,20-SEP-2017,1430,1250,A123456,7530,2100,A201218,50
173462,A00018747,PGStudent Perry,,20-SEP-2017,1430,1250,A123456,7530,2100,A201218,50
173462,A00018747,PGStudent Perry,,20-SEP-2017,1430,1250,A123456,7530,2100,A201218,50
173462,A00018747,PGStudent Perry,,20-SEP-2017,1430,1250,A123456,7530,2100,A201218,50
173462,A00018747,PGStudent Perry,,20-SEP-2017,1430,1250,A123456,7530,2100,A201218,50
173462,A00018747,PGStudent Perry,,20-SEP-2017,1430,1250,A123456,7530,2100,A201218,50
173462,A00018747,PGStudent Perry,,20-SEP-2017,1430,1250,A123456,7530,2100,A201218,50
173462,A00018747,PGStudent Perry,,20-SEP-2017,1430,1250,A123456,7530,2100,A201218,50
173462,A00018747,PGStudent Perry,,20-SEP-2017,1430,1250,A123456,7530,2100,A201218,50
173462,A00018747,PGStudent Perry,,20-SEP-2017,1430,1250,A123456,7530,2100,A201218,50
173462,A00018747,PGStudent Perry,,20-SEP-2017,1430,1250,A123456,7530,2100,A201218,50
173462,A00018747,PGStudent Perry,,20-SEP-2017,1430,1250,A123456,7530,2100,A201218,50
173462,A00018747,PGStudent Perry,,20-SEP-2017,1430,1250,A123456,7530,2100,A201218,50
173462,A00018747,PGStudent Perry,,20-SEP-2017,1430,1250,A123456,7530,2100,A201218,50
173462,A00018747,PGStudent Perry,,20-SEP-2017,1430,1250,A123456,7530,2100,A201218,50
173462,A00018747,PGStudent Perry,,20-SEP-2017,1430,1250,A123456,7530,2100,A201218,3287
173462,A00018747,PGStudent Perry,,20-SEP-2017,1430,1250,A123456,7530,2100,A201218,3287
173462,A00018747,PGStudent Perry,,20-SEP-2017,1430,1250,A123456,7530,2100,A201218,3287
173462,A00018747,PGStudent Perry,,20-SEP-2017,1430,1250,A123456,7530,2100,A201218,3287
173462,A00018747,PGStudent Perry,,20-SEP-2017,1430,1250,A123456,7530,2100,A201218,3287
173462,A00018747,PGStudent Perry,,20-SEP-2017,1430,1250,A123456,7530,2100,A201218,3287
173462,A00018747,PGStudent Perry,,20-SEP-2017,1430,1250,A123456,7530,2100,A201218,3287
173462,A00018747,PGStudent Perry,,20-SEP-2017,1430,1250,A123456,7530,2100,A201218,3287
173462,A00018747,PGStudent Perry,,20-SEP-2017,1430,1250,A123456,7530,2100,A201218,3287
173462,A00018747,PGStudent Perry,,20-SEP-2017,1430,1250,A123456,7530,2100,A201218,3287
173462,A00018747,PGStudent Perry,,20-SEP-2017,1430,1250,A123456,7530,2100,A201218,3287
173462,A00018747,PGStudent Perry,,20-SEP-2017,1430,1250,A123456,7530,2100,A201218,3287
173462,A00018747,PGStudent Perry,,20-SEP-2017,1430,1250,A123456,7530,2100,A201218,3287
173462,A00018747,PGStudent Perry,,20-SEP-2017,1430,1250,A123456,7530,2100,A201218,3287
173462,A00018747,PGStudent Perry,,20-SEP-2017,1430,1250,A123456,7530,2100,A201218,3287
173462,A00018747,PGStudent Perry,,20-SEP-2017,1430,1250,A123456,7530,2100,A201218,3287
173462,A00018747,PGStudent Perry,,20-SEP-2017,1430,1250,A123456,7530,2100,A201218,3287
173462,A00018747,PGStudent Perry,,20-SEP-2017,1430,1250,A123456,7530,2100,A201218,3287
173462,A00018747,PGStudent Perry,,20-SEP-2017,1430,1250,A123456,7530,2100,A201218,3287
173462,A00018747,PGStudent Perry,,20-SEP-2017,1430,1250,A123456,7530,2100,A201218,3287
173462,A00018747,PGStudent Perry,,20-SEP-2017,1430,1250,A123456,7530,2100,A201218,3287
173462,A00018747,PGStudent Perry,,20-SEP-2017,1430,1250,A123456,7530,2100,A201218,3287
173462,A00018747,PGStudent Perry,,20-SEP-2017,1430,1250,A123456,7530,2100,A201218,3287
173462,A00018747,PGStudent Perry,,20-SEP-2017,1430,1250,A123456,7530,2100,A201218,3287
173462,A00018747,PGStudent Perry,,20-SEP-2017,1430,1250,A123456,7530,2100,A201218,3287
173462,A00018747,PGStudent Perry,,20-SEP-2017,1430,1250,A123456,7530,2100,A201218,3287
173462,A00018747,PGStudent Perry,,20-SEP-2017,1430,1250,A123456,7530,2100,A201218,3287
173462,A00018747,PGStudent Perry,,20-SEP-2017,1430,1250,A123456,7530,2100,A201218,3287
173462,A00018747,PGStudent Perry,,20-SEP-2017,1430,1250,A123456,7530,2100,A201218,3287
173462,A00018747,PGStudent Perry,,20-SEP-2017,1430,1250,A123456,7530,2100,A201218,3287
173462,A00018747,PGStudent Perry,,20-SEP-2017,1430,1250,A123456,7530,2100,A201218,3287
173462,A00018747,PGStudent Perry,,20-SEP-2017,1430,1250,A123456,7530,2100,A201218,3287
173463,,,,27-SEP-2017,1330,1005,A123456,7530,2100,A201218,9250
173463,,,,27-SEP-2017,1330,1005,A123456,7530,2100,A201218,9250
173463,A00018827,Harry Gwilliam,,27-SEP-2017,1330,1005,A123456,7530,2100,A201218,9250
173463,A00018827,Harry Gwilliam,,27-SEP-2017,1330,1005,A123456,7530,2100,A201218,9250
173463,,,,27-SEP-2017,1330,1005,A123456,7530,2100,A201218,9250
173463,,,,27-SEP-2017,1330,1005,A123456,7530,2100,A201218,9250
173464,A00018827,Harry Gwilliam,,12-OCT-2017,1330,1005,A123456,7530,2100,A201218,4625
173464,A00018827,Harry Gwilliam,,12-OCT-2017,1330,1005,A123456,7530,2100,A201218,4625
173464,A00018827,Harry Gwilliam,,12-OCT-2017,1330,1005,A123456,7530,2100,A201218,4625
173464,A00018827,Harry Gwilliam,,12-OCT-2017,1330,1005,A123456,7530,2100,A201218,4625
173464,A00018827,Harry Gwilliam,,23-JAN-2018,1330,1005,A123456,7530,2100,A201218,4625
173464,A00018827,Harry Gwilliam,,23-JAN-2018,1330,1005,A123456,7530,2100,A201218,4625
173465,A00018827,Harry Gwilliam,,13-OCT-2017,1330,1250,A123456,7530,2100,A201218,2312
173465,A00018827,Harry Gwilliam,,13-OCT-2017,1330,1250,A123456,7530,2100,A201218,2312
173465,A00018827,Harry Gwilliam,,13-OCT-2017,1330,1250,A123456,7530,2100,A201218,2312
173465,A00018827,Harry Gwilliam,,13-OCT-2017,1330,1250,A123456,7530,2100,A201218,2312
173465,A00018827,Harry Gwilliam,,13-OCT-2017,1330,1250,A123456,7530,2100,A201218,2312
173465,A00018827,Harry Gwilliam,,13-OCT-2017,1330,1250,A123456,7530,2100,A201218,2312
173465,A00018827,Harry Gwilliam,,13-OCT-2017,1330,1250,A123456,7530,2100,A201218,2312
173465,A00018827,Harry Gwilliam,,13-OCT-2017,1330,1250,A123456,7530,2100,A201218,2312
173465,A00018827,Harry Gwilliam,,13-OCT-2017,1330,1250,A123456,7530,2100,A201218,2312
173465,A00018827,Harry Gwilliam,,13-OCT-2017,1330,1250,A123456,7530,2100,A201218,2312
173465,A00018827,Harry Gwilliam,,13-OCT-2017,1330,1250,A123456,7530,2100,A201218,2312
173465,A00018827,Harry Gwilliam,,13-OCT-2017,1330,1250,A123456,7530,2100,A201218,2312
173465,A00018827,Harry Gwilliam,,13-OCT-2017,1330,1250,A123456,7530,2100,A201218,2312
173465,A00018827,Harry Gwilliam,,13-OCT-2017,1330,1250,A123456,7530,2100,A201218,2312
173465,A00018827,Harry Gwilliam,,13-OCT-2017,1330,1250,A123456,7530,2100,A201218,2312
173465,A00018827,Harry Gwilliam,,13-OCT-2017,1330,1250,A123456,7530,2100,A201218,2312
173465,A00018827,Harry Gwilliam,,13-OCT-2017,1330,1005,A123456,7530,2100,A201218,4625
173465,A00018827,Harry Gwilliam,,13-OCT-2017,1330,1005,A123456,7530,2100,A201218,4625
173465,A00018827,Harry Gwilliam,,13-OCT-2017,1330,1005,A123456,7530,2100,A201218,4625
173465,A00018827,Harry Gwilliam,,13-OCT-2017,1330,1005,A123456,7530,2100,A201218,4625
173466,A00019064,Boris Johnson,,20-OCT-2017,1330,1250,A123456,7530,2100,A201218,2312
173466,A00019064,Boris Johnson,,20-OCT-2017,1330,1250,A123456,7530,2100,A201218,2312
173466,A00019064,Boris Johnson,,20-OCT-2017,1330,1250,A123456,7530,2100,A201218,2312
173466,A00019064,Boris Johnson,,20-OCT-2017,1330,1250,A123456,7530,2100,A201218,2312
173466,A00019064,Boris Johnson,,20-OCT-2017,1330,1250,A123456,7530,2100,A201218,2312
173466,A00019064,Boris Johnson,,20-OCT-2017,1330,1250,A123456,7530,2100,A201218,2312
173466,A00019064,Boris Johnson,,20-OCT-2017,1330,1250,A123456,7530,2100,A201218,2312
173466,A00019064,Boris Johnson,,20-OCT-2017,1330,1250,A123456,7530,2100,A201218,2312
173466,A00019064,Boris Johnson,,20-OCT-2017,1330,1250,A123456,7530,2100,A201218,2312
173466,A00019064,Boris Johnson,,20-OCT-2017,1330,1250,A123456,7530,2100,A201218,2312
173466,A00019064,Boris Johnson,,20-OCT-2017,1330,1250,A123456,7530,2100,A201218,2312
173466,A00019064,Boris Johnson,,20-OCT-2017,1330,1250,A123456,7530,2100,A201218,2312
173466,A00019064,Boris Johnson,,20-OCT-2017,1330,1250,A123456,7530,2100,A201218,2312
173466,A00019064,Boris Johnson,,20-OCT-2017,1330,1250,A123456,7530,2100,A201218,2312
173466,A00019064,Boris Johnson,,20-OCT-2017,1330,1250,A123456,7530,2100,A201218,2312
173466,A00019064,Boris Johnson,,20-OCT-2017,1330,1250,A123456,7530,2100,A201218,2312
173466,A00019064,Boris Johnson,,20-OCT-2017,1330,1250,A123456,7530,2100,A201218,2312
173466,A00019064,Boris Johnson,,20-OCT-2017,1330,1250,A123456,7530,2100,A201218,2312
173466,A00019064,Boris Johnson,,20-OCT-2017,1330,1250,A123456,7530,2100,A201218,2312
173466,A00019064,Boris Johnson,,20-OCT-2017,1330,1250,A123456,7530,2100,A201218,2312
173466,A00019064,Boris Johnson,,20-OCT-2017,1330,1250,A123456,7530,2100,A201218,2312
173466,A00019064,Boris Johnson,,20-OCT-2017,1330,1250,A123456,7530,2100,A201218,2312
173466,A00019064,Boris Johnson,,20-OCT-2017,1330,1250,A123456,7530,2100,A201218,2312
173466,A00019064,Boris Johnson,,20-OCT-2017,1330,1250,A123456,7530,2100,A201218,2312
173466,A00019064,Boris Johnson,,20-OCT-2017,1330,1250,A123456,7530,2100,A201218,2312
173466,A00019064,Boris Johnson,,20-OCT-2017,1330,1250,A123456,7530,2100,A201218,2312
173466,A00019064,Boris Johnson,,20-OCT-2017,1330,1250,A123456,7530,2100,A201218,2312
173466,A00019064,Boris Johnson,,20-OCT-2017,1330,1250,A123456,7530,2100,A201218,2312
173466,A00019064,Boris Johnson,,20-OCT-2017,1330,1250,A123456,7530,2100,A201218,2312
173466,A00019064,Boris Johnson,,20-OCT-2017,1330,1250,A123456,7530,2100,A201218,2312
173466,A00019064,Boris Johnson,,20-OCT-2017,1330,1250,A123456,7530,2100,A201218,2312
173466,A00019064,Boris Johnson,,20-OCT-2017,1330,1250,A123456,7530,2100,A201218,2312
173467,A00018407,Another Mode Chage Perry,,02-NOV-2017,7530,2100,A201218,7531,2100,A201218,3000
173467,A00018407,Another Mode Chage Perry,,02-NOV-2017,7530,2100,A201218,7531,2100,A201218,3000
173468,A00018671,Harry Hewitt,,08-NOV-2017,1210,1006,XXXXXX,7530,2100,A201218,3084
173468,A00018671,Harry Hewitt,,08-NOV-2017,1210,1006,XXXXXX,7530,2100,A201218,3084
173468,A00018924,BH56 HFT4 Perry,,08-NOV-2017,1314,1005,XXXXXX,7530,2100,A201218,4080
173468,A00018924,BH56 HFT4 Perry,,08-NOV-2017,1314,1005,XXXXXX,7530,2100,A201218,4080
173469,A00018924,BH56 HFT4 Perry,,09-NOV-2017,1314,1005,XXXXXX,7530,2100,A201218,4080
173469,A00018924,BH56 HFT4 Perry,,09-NOV-2017,1314,1005,XXXXXX,7530,2100,A201218,4080
173469,A00018933,BH56 HFT1 Perry,,09-NOV-2017,1314,1005,XXXXXX,7530,2100,A201218,4080
173469,A00018933,BH56 HFT1 Perry,,09-NOV-2017,1314,1005,XXXXXX,7530,2100,A201218,4080
173469,A00018933,BH56 HFT1 Perry,,09-NOV-2017,1314,1005,XXXXXX,7530,2100,A201218,222
173469,A00018933,BH56 HFT1 Perry,,09-NOV-2017,1314,1005,XXXXXX,7530,2100,A201218,222
1734610,SC,Suzanne Carney,,05-DEC-2017,7530,2100,A201218,7531,2100,A201218,8994
1734610,SC,Suzanne Carney,,05-DEC-2017,7530,2100,A201218,7531,2100,A201218,8994
1734611,A00019367,Suzanne Iezzoni,,06-DEC-2017,1210,1004,XXXXXX,7530,2100,A201218,4035
1734611,A00019367,Suzanne Iezzoni,,06-DEC-2017,1210,1004,XXXXXX,7530,2100,A201218,4035
1734611,A00019367,Suzanne Iezzoni,,06-DEC-2017,1210,1004,XXXXXX,7530,2100,A201218,4035
1734611,A00019367,Suzanne Iezzoni,,06-DEC-2017,1210,1004,XXXXXX,7530,2100,A201218,4035
1734611,A00019367,Suzanne Iezzoni,,06-DEC-2017,1210,1004,XXXXXX,7530,2100,A201218,4035
1734611,A00019367,Suzanne Iezzoni,,06-DEC-2017,1210,1004,XXXXXX,7530,2100,A201218,4035
1734611,A00019367,Suzanne Iezzoni,,06-DEC-2017,1210,1004,XXXXXX,7530,2100,A201218,4035
1734611,A00019367,Suzanne Iezzoni,,06-DEC-2017,1210,1004,XXXXXX,7530,2100,A201218,4035
1734611,A00019367,Suzanne Iezzoni,,06-DEC-2017,1210,1004,XXXXXX,7530,2100,A201218,4035
1734611,A00019367,Suzanne Iezzoni,,06-DEC-2017,1210,1004,XXXXXX,7530,2100,A201218,4035
1734611,A00019367,Suzanne Iezzoni,,06-DEC-2017,1210,1004,XXXXXX,7530,2100,A201218,4035
1734611,A00019367,Suzanne Iezzoni,,06-DEC-2017,1210,1004,XXXXXX,7530,2100,A201218,4035
1734611,A00019367,Suzanne Iezzoni,,06-DEC-2017,1210,1004,XXXXXX,7530,2100,A201218,4035
1734611,A00019367,Suzanne Iezzoni,,06-DEC-2017,1210,1004,XXXXXX,7530,2100,A201218,4035
1734611,A00019367,Suzanne Iezzoni,,06-DEC-2017,1210,1004,XXXXXX,7530,2100,A201218,4035
1734611,A00019367,Suzanne Iezzoni,,06-DEC-2017,1210,1004,XXXXXX,7530,2100,A201218,4035
1734611,A00019367,Suzanne Iezzoni,,06-DEC-2017,1210,1006,XXXXXX,7530,2100,A201218,4035
1734611,A00019367,Suzanne Iezzoni,,06-DEC-2017,1210,1006,XXXXXX,7530,2100,A201218,4035
1734611,A00019368,Suzanne Test,,06-DEC-2017,1210,1004,XXXXXX,7530,2100,A201218,5000
1734611,A00019368,Suzanne Test,,06-DEC-2017,1210,1004,XXXXXX,7530,2100,A201218,5000
1734611,A00019368,Suzanne Test,,06-DEC-2017,1210,1004,XXXXXX,7530,2100,A201218,5000
1734611,A00019368,Suzanne Test,,06-DEC-2017,1210,1004,XXXXXX,7530,2100,A201218,5000
1734611,A00019368,Suzanne Test,,06-DEC-2017,1210,1004,XXXXXX,7530,2100,A201218,5000
1734611,A00019368,Suzanne Test,,06-DEC-2017,1210,1004,XXXXXX,7530,2100,A201218,5000
1734611,A00019368,Suzanne Test,,06-DEC-2017,1210,1004,XXXXXX,7530,2100,A201218,5000
1734611,A00019368,Suzanne Test,,06-DEC-2017,1210,1004,XXXXXX,7530,2100,A201218,5000
1734611,SB,New Test,,06-DEC-2017,1210,1004,XXXXXX,7530,2100,A201218,5000
1734611,SB,New Test,,06-DEC-2017,1210,1004,XXXXXX,7530,2100,A201218,5000
1734611,SB,New Test,,06-DEC-2017,1210,1004,XXXXXX,7530,2100,A201218,5000
1734611,SB,New Test,,06-DEC-2017,1210,1004,XXXXXX,7530,2100,A201218,5000
1734611,SB,New Test,,06-DEC-2017,1210,1004,XXXXXX,7530,2100,A201218,5000
1734611,SB,New Test,,06-DEC-2017,1210,1004,XXXXXX,7530,2100,A201218,5000
1734611,SB,New Test,,06-DEC-2017,1210,1004,XXXXXX,7530,2100,A201218,5000
1734611,SB,New Test,,06-DEC-2017,1210,1004,XXXXXX,7530,2100,A201218,5000
1734612,,,,07-DEC-2017,7530,2100,A201218,7531,2100,A201218,2312
1734612,,,,07-DEC-2017,7530,2100,A201218,7531,2100,A201218,2312
1734612,A00018644,Suzanne Burch,,07-DEC-2017,7530,2100,A201218,7531,2100,A201218,9000
1734612,A00018644,Suzanne Burch,,07-DEC-2017,7530,2100,A201218,7531,2100,A201218,9000
1734612,A00018644,Suzanne Burch,,07-DEC-2017,7530,2100,A201218,7531,2100,A201218,9000
1734612,A00018644,Suzanne Burch,,07-DEC-2017,7530,2100,A201218,7531,2100,A201218,9000
1734613,SE,Suzanne Elizabeth,,08-DEC-2017,7530,2100,A201218,7531,2100,A201218,9000
1734613,SE,Suzanne Elizabeth,,08-DEC-2017,7530,2100,A201218,7531,2100,A201218,9000
1734613,,,,08-DEC-2017,7530,2100,A201218,7531,2100,A201218,25000
1734613,,,,08-DEC-2017,7530,2100,A201218,7531,2100,A201218,25000
1734613,SB,New Test,,08-DEC-2017,7530,2100,A201218,7531,2100,A201218,3000
1734613,SB,New Test,,08-DEC-2017,7530,2100,A201218,7531,2100,A201218,3000
1734614,SB,New Test,,12-DEC-2017,1210,1004,XXXXXX,7530,2100,A201218,1000
1734614,SB,New Test,,12-DEC-2017,1210,1004,XXXXXX,7530,2100,A201218,1000
1734614,SB,New Test,,12-DEC-2017,1210,1004,XXXXXX,7530,2100,A201218,1000
1734614,SB,New Test,,12-DEC-2017,1210,1004,XXXXXX,7530,2100,A201218,1000
1734614,SB,New Test,,12-DEC-2017,1210,1004,XXXXXX,7530,2100,A201218,1000
1734614,SB,New Test,,12-DEC-2017,1210,1004,XXXXXX,7530,2100,A201218,1000
1734614,SB,New Test,,12-DEC-2017,1210,1004,XXXXXX,7530,2100,A201218,1000
1734614,SB,New Test,,12-DEC-2017,1210,1004,XXXXXX,7530,2100,A201218,1000
1734615,A00018924,BH56 HFT4 Perry,,23-JAN-2018,1314,1005,XXXXXX,7530,2100,A201218,4080
1734615,A00018924,BH56 HFT4 Perry,,23-JAN-2018,1314,1005,XXXXXX,7530,2100,A201218,4080
1734618,,,,07-DEC-2017,1330,1005,A123456,7530,2100,A201218,9250
1734618,,,,07-DEC-2017,1330,1005,A123456,7530,2100,A201218,9250
1734618,,,,07-DEC-2017,1330,1005,A123456,7530,2100,A201218,9250
1734618,,,,07-DEC-2017,1330,1005,A123456,7530,2100,A201218,9250
1734618,A00018827,Harry Gwilliam,,08-DEC-2017,1330,1005,A123456,7530,2100,A201218,4625
1734618,A00018827,Harry Gwilliam,,08-DEC-2017,1330,1005,A123456,7530,2100,A201218,4625
1734618,A00018827,Harry Gwilliam,,08-DEC-2017,1330,1005,A123456,7530,2100,A201218,4625
1734618,A00018827,Harry Gwilliam,,08-DEC-2017,1330,1005,A123456,7530,2100,A201218,4625
1734618,A00018827,Harry Gwilliam,,08-DEC-2017,1330,1250,A123456,7530,2100,A201218,2312
1734618,A00018827,Harry Gwilliam,,08-DEC-2017,1330,1250,A123456,7530,2100,A201218,2312
1734618,A00018827,Harry Gwilliam,,08-DEC-2017,1330,1250,A123456,7530,2100,A201218,2312
1734618,A00018827,Harry Gwilliam,,08-DEC-2017,1330,1250,A123456,7530,2100,A201218,2312
1734618,A00018827,Harry Gwilliam,,08-DEC-2017,1330,1250,A123456,7530,2100,A201218,2312
1734618,A00018827,Harry Gwilliam,,08-DEC-2017,1330,1250,A123456,7530,2100,A201218,2312
1734618,A00018827,Harry Gwilliam,,08-DEC-2017,1330,1250,A123456,7530,2100,A201218,2312
1734618,A00018827,Harry Gwilliam,,08-DEC-2017,1330,1250,A123456,7530,2100,A201218,2312
1734618,A00018827,Harry Gwilliam,,08-DEC-2017,1330,1005,A123456,7530,2100,A201218,4625
1734618,A00018924,BH56 HFT4 Perry,,08-DEC-2017,1314,1005,XXXXXX,7530,2100,A201218,4080
1734618,A00018924,BH56 HFT4 Perry,,08-DEC-2017,1314,1005,XXXXXX,7530,2100,A201218,4080
1734618,A00019064,Boris Johnson,,08-DEC-2017,1330,1250,A123456,7530,2100,A201218,2312
1734618,A00019064,Boris Johnson,,08-DEC-2017,1330,1250,A123456,7530,2100,A201218,2312
1734618,A00019064,Boris Johnson,,08-DEC-2017,1330,1250,A123456,7530,2100,A201218,2312
1734618,A00019064,Boris Johnson,,08-DEC-2017,1330,1350,A123456,7530,2100,A201218,2312
1734618,A00019064,Boris Johnson,,08-DEC-2017,1330,1250,A123456,7530,2100,A201218,2312
1734618,A00019064,Boris Johnson,,08-DEC-2017,1330,1250,A123456,7530,2100,A201218,2312
1734618,A00019064,Boris Johnson,,08-DEC-2017,1330,1250,A123456,7530,2100,A201218,2312
1734618,A00019064,Boris Johnson,,08-DEC-2017,1330,1250,A123456,7530,2100,A201218,2312
1734618,A00019064,Boris Johnson,,08-DEC-2017,1330,1250,A123456,7530,2100,A201218,2312
1734618,A00019064,Boris Johnson,,08-DEC-2017,1330,1250,A123456,7530,2100,A201218,2312
1734618,A00019064,Boris Johnson,,08-DEC-2017,1330,1250,A123456,7530,2100,A201218,2312
1734618,A00019064,Boris Johnson,,08-DEC-2017,1330,1250,A123456,7530,2100,A201218,2312
1734618,A00019064,Boris Johnson,,08-DEC-2017,1330,1250,A123456,7530,2100,A201218,2312
1734618,A00019064,Boris Johnson,,08-DEC-2017,1330,1350,A123456,7530,2100,A201218,2312
1734618,A00019064,Boris Johnson,,08-DEC-2017,1330,1350,A123456,7530,2100,A201218,2312
1734618,A00019064,Boris Johnson,,08-DEC-2017,1330,1350,A123456,7530,2100,A201218,2312
1734618,,,,07-DEC-2017,1330,1005,A123456,7530,2100,A201218,9250
1734618,,,,07-DEC-2017,1330,1005,A123456,7530,2100,A201218,9250
173551,SB,New Test,,12-DEC-2017,7530,2100,A201218,7531,2100,A201218,1000
173551,SB,New Test,,12-DEC-2017,7530,2100,A201218,7531,2100,A201218,1000
173551,SB,New Test,,12-DEC-2017,7530,2100,A201218,7531,2100,A201218,1000
173551,SB,New Test,,12-DEC-2017,7530,2100,A201218,7531,2100,A201218,1000
173551,SB,New Test,,12-DEC-2017,7530,2100,A201218,7531,2100,A201218,1000
173551,SB,New Test,,12-DEC-2017,7530,2100,A201218,7531,2100,A201218,1000
173551,SB,New Test,,12-DEC-2017,7530,2100,A201218,7531,2100,A201218,2000
173551,SB,New Test,,12-DEC-2017,7530,2100,A201218,7531,2100,A201218,2000
173551,SB,New Test,,12-DEC-2017,7530,2100,A201218,7531,2100,A201218,500
173551,SB,New Test,,12-DEC-2017,7530,2100,A201218,7531,2100,A201218,500
173551,SB,New Test,,12-DEC-2017,7530,2100,A201218,7531,2100,A201218,500
173551,SB,New Test,,12-DEC-2017,7530,2100,A201218,7531,2100,A201218,500
173552,A00019428,Oscar Wilde,,13-DEC-2017,1210,1006,XXXXXX,7530,2100,A201218,3084
173552,A00019428,Oscar Wilde,,13-DEC-2017,1210,1006,XXXXXX,7530,2100,A201218,3084
173552,A00019428,Oscar Wilde,,13-DEC-2017,1240,1004,XXXXXX,7530,2100,A201218,11250
173552,A00019428,Oscar Wilde,,13-DEC-2017,1240,1004,XXXXXX,7530,2100,A201218,11250
173552,A00019428,Oscar Wilde,,13-DEC-2017,1240,1004,XXXXXX,7530,2100,A201218,10500
173552,A00019428,Oscar Wilde,,13-DEC-2017,1240,1004,XXXXXX,7530,2100,A201218,10500
173552,A00019428,Oscar Wilde,,13-DEC-2017,7530,2100,A201218,7531,2100,A201218,750
173552,A00019428,Oscar Wilde,,13-DEC-2017,7530,2100,A201218,7531,2100,A201218,750
173552,A00019428,Oscar Wilde,,13-DEC-2017,7530,2100,A201218,7531,2100,A201218,1500
173552,A00019428,Oscar Wilde,,13-DEC-2017,7530,2100,A201218,7531,2100,A201218,1500
173552,A00019429,O Fortuna,,13-DEC-2017,1210,1004,XXXXXX,7530,2100,A201218,4625
173552,A00019429,O Fortuna,,13-DEC-2017,1210,1004,XXXXXX,7530,2100,A201218,4625
173552,A00019429,O Fortuna,,13-DEC-2017,1210,1004,XXXXXX,7530,2100,A201218,4625
173552,A00019429,O Fortuna,,13-DEC-2017,1210,1004,XXXXXX,7530,2100,A201218,4625
173552,A00019429,O Fortuna,,13-DEC-2017,1210,1004,XXXXXX,7530,2100,A201218,4625
173552,A00019429,O Fortuna,,13-DEC-2017,1210,1004,XXXXXX,7530,2100,A201218,4625
173552,A00019429,O Fortuna,,13-DEC-2017,1210,1004,XXXXXX,7530,2100,A201218,4625
173552,A00019429,O Fortuna,,13-DEC-2017,1210,1004,XXXXXX,7530,2100,A201218,4625
173552,A00019430,Water Smart,,13-DEC-2017,1220,1004,XXXXXX,7530,2100,A201218,13100
173552,A00019430,Water Smart,,13-DEC-2017,1220,1004,XXXXXX,7530,2100,A201218,13100
173552,A00019431,Bear Polar,,13-DEC-2017,1210,1004,XXXXXX,7530,2100,A201218,4625
173552,A00019431,Bear Polar,,13-DEC-2017,1210,1004,XXXXXX,7530,2100,A201218,4625
173552,A00019431,Bear Polar,,13-DEC-2017,1210,1004,XXXXXX,7530,2100,A201218,4625
173552,A00019431,Bear Polar,,13-DEC-2017,1210,1004,XXXXXX,7530,2100,A201218,4625
173552,A00019431,Bear Polar,,13-DEC-2017,1210,1004,XXXXXX,7530,2100,A201218,4625
173552,A00019431,Bear Polar,,13-DEC-2017,1210,1004,XXXXXX,7530,2100,A201218,4625
173552,A00019431,Bear Polar,,13-DEC-2017,1210,1004,XXXXXX,7530,2100,A201218,4625
173552,A00019431,Bear Polar,,13-DEC-2017,1210,1004,XXXXXX,7530,2100,A201218,4625
173552,A00019428,Oscar Wilde,,13-DEC-2017,1210,1006,XXXXXX,7530,2100,A201218,3084
173552,A00019428,Oscar Wilde,,13-DEC-2017,1210,1006,XXXXXX,7530,2100,A201218,3084
173552,A00019431,Bear Polar,,13-DEC-2017,7530,2100,A201218,7531,2100,A201218,3083
173552,A00019431,Bear Polar,,13-DEC-2017,7530,2100,A201218,7531,2100,A201218,3083
173552,A00019432,Radio Talk,,13-DEC-2017,1210,1004,XXXXXX,7530,2100,A201218,4625
173552,A00019432,Radio Talk,,13-DEC-2017,1210,1004,XXXXXX,7530,2100,A201218,4625
173552,A00019432,Radio Talk,,13-DEC-2017,1210,1004,XXXXXX,7530,2100,A201218,4625
173552,A00019432,Radio Talk,,13-DEC-2017,1210,1004,XXXXXX,7530,2100,A201218,4625
173552,A00019432,Radio Talk,,13-DEC-2017,1210,1004,XXXXXX,7530,2100,A201218,4625
173552,A00019432,Radio Talk,,13-DEC-2017,1210,1004,XXXXXX,7530,2100,A201218,4625
173552,A00019432,Radio Talk,,13-DEC-2017,1210,1004,XXXXXX,7530,2100,A201218,4625
173552,A00019432,Radio Talk,,13-DEC-2017,1210,1004,XXXXXX,7530,2100,A201218,4625
173552,A00019432,Radio Talk,,13-DEC-2017,1210,1004,XXXXXX,7530,2100,A201218,4625
173552,A00019432,Radio Talk,,13-DEC-2017,1210,1004,XXXXXX,7530,2100,A201218,4625
173552,A00019432,Radio Talk,,13-DEC-2017,1210,1004,XXXXXX,7530,2100,A201218,4625
173552,A00019432,Radio Talk,,13-DEC-2017,1210,1004,XXXXXX,7530,2100,A201218,4625
173552,A00019432,Radio Talk,,13-DEC-2017,1210,1004,XXXXXX,7530,2100,A201218,4625
173552,A00019432,Radio Talk,,13-DEC-2017,1210,1004,XXXXXX,7530,2100,A201218,4625
173552,A00019432,Radio Talk,,13-DEC-2017,1210,1004,XXXXXX,7530,2100,A201218,4625
173552,A00019432,Radio Talk,,13-DEC-2017,1210,1004,XXXXXX,7530,2100,A201218,4625
173552,,,,13-DEC-2017,7530,2100,A201218,7531,2100,A201218,2312
173552,,,,13-DEC-2017,7530,2100,A201218,7531,2100,A201218,2312
173552,A00019433,Chocolate Bar,,13-DEC-2017,1210,1004,XXXXXX,7530,2100,A201218,4625
173552,A00019433,Chocolate Bar,,13-DEC-2017,1210,1004,XXXXXX,7530,2100,A201218,4625
173552,A00019433,Chocolate Bar,,13-DEC-2017,1210,1004,XXXXXX,7530,2100,A201218,4625
173552,A00019433,Chocolate Bar,,13-DEC-2017,1210,1004,XXXXXX,7530,2100,A201218,4625
173552,A00019433,Chocolate Bar,,13-DEC-2017,1210,1004,XXXXXX,7530,2100,A201218,4625
173552,A00019433,Chocolate Bar,,13-DEC-2017,1210,1004,XXXXXX,7530,2100,A201218,4625
173552,A00019433,Chocolate Bar,,13-DEC-2017,1210,1004,XXXXXX,7530,2100,A201218,4625
173552,A00019433,Chocolate Bar,,13-DEC-2017,1210,1004,XXXXXX,7530,2100,A201218,4625
173552,,,,13-DEC-2017,7530,2100,A201218,7531,2100,A201218,2312
173552,,,,13-DEC-2017,7530,2100,A201218,7531,2100,A201218,2312
173552,,,,13-DEC-2017,1210,1004,XXXXXX,7530,2100,A201218,2312
173552,,,,13-DEC-2017,1210,1004,XXXXXX,7530,2100,A201218,2312
173552,,,,13-DEC-2017,1210,1004,XXXXXX,7530,2100,A201218,2312
173552,,,,13-DEC-2017,1210,1004,XXXXXX,7530,2100,A201218,2312
173552,,,,13-DEC-2017,1210,1004,XXXXXX,7530,2100,A201218,2312
173552,,,,13-DEC-2017,1210,1004,XXXXXX,7530,2100,A201218,2312
173552,,,,13-DEC-2017,1210,1004,XXXXXX,7530,2100,A201218,2312
173552,,,,13-DEC-2017,1210,1004,XXXXXX,7530,2100,A201218,2312
173552,A00019435,Family International,,13-DEC-2017,1210,1004,XXXXXX,7530,2100,A201218,4625
173552,A00019435,Family International,,13-DEC-2017,1210,1004,XXXXXX,7530,2100,A201218,4625
173552,A00019435,Family International,,13-DEC-2017,1210,1004,XXXXXX,7530,2100,A201218,4625
173552,A00019435,Family International,,13-DEC-2017,1210,1004,XXXXXX,7530,2100,A201218,4625
173552,A00019435,Family International,,13-DEC-2017,1210,1004,XXXXXX,7530,2100,A201218,4625
173552,A00019435,Family International,,13-DEC-2017,1210,1004,XXXXXX,7530,2100,A201218,4625
173552,A00019435,Family International,,13-DEC-2017,1210,1004,XXXXXX,7530,2100,A201218,4625
173552,A00019435,Family International,,13-DEC-2017,1210,1004,XXXXXX,7530,2100,A201218,4625
173552,A00019435,Family International,,13-DEC-2017,1210,1004,XXXXXX,7530,2100,A201218,4625
173552,A00019435,Family International,,13-DEC-2017,1210,1004,XXXXXX,7530,2100,A201218,4625
173552,A00019435,Family International,,13-DEC-2017,1210,1004,XXXXXX,7530,2100,A201218,4625
173552,A00019435,Family International,,13-DEC-2017,1210,1004,XXXXXX,7530,2100,A201218,4625
173552,A00019435,Family International,,13-DEC-2017,1210,1004,XXXXXX,7530,2100,A201218,4625
173552,A00019435,Family International,,13-DEC-2017,1210,1004,XXXXXX,7530,2100,A201218,4625
173552,A00019435,Family International,,13-DEC-2017,1210,1004,XXXXXX,7530,2100,A201218,4625
173552,A00019435,Family International,,13-DEC-2017,1210,1004,XXXXXX,7530,2100,A201218,4625
173552,A00019435,Family International,,13-DEC-2017,1210,1004,XXXXXX,7530,2100,A201218,4625
173552,A00019435,Family International,,13-DEC-2017,1210,1004,XXXXXX,7530,2100,A201218,4625
173552,A00019435,Family International,,13-DEC-2017,1210,1004,XXXXXX,7530,2100,A201218,4625
173552,A00019435,Family International,,13-DEC-2017,1210,1004,XXXXXX,7530,2100,A201218,4625
173552,A00019435,Family International,,13-DEC-2017,1210,1004,XXXXXX,7530,2100,A201218,4625
173552,A00019435,Family International,,13-DEC-2017,1210,1004,XXXXXX,7530,2100,A201218,4625
173552,A00019435,Family International,,13-DEC-2017,1210,1004,XXXXXX,7530,2100,A201218,4625
173552,A00019435,Family International,,13-DEC-2017,1210,1004,XXXXXX,7530,2100,A201218,4625
173552,A00019435,Family International,,13-DEC-2017,1210,1004,XXXXXX,7530,2100,A201218,4625
173552,A00019435,Family International,,13-DEC-2017,1210,1004,XXXXXX,7530,2100,A201218,4625
173552,A00019435,Family International,,13-DEC-2017,1210,1004,XXXXXX,7530,2100,A201218,4625
173552,A00019435,Family International,,13-DEC-2017,1210,1004,XXXXXX,7530,2100,A201218,4625
173552,A00019435,Family International,,13-DEC-2017,1210,1004,XXXXXX,7530,2100,A201218,4625
173552,A00019435,Family International,,13-DEC-2017,1210,1004,XXXXXX,7530,2100,A201218,4625
173552,A00019435,Family International,,13-DEC-2017,1210,1004,XXXXXX,7530,2100,A201218,4625
173552,A00019435,Family International,,13-DEC-2017,1210,1004,XXXXXX,7530,2100,A201218,4625
173552,A00019436,Charges Accept,,13-DEC-2017,1210,1004,XXXXXX,7530,2100,A201218,4625
173552,A00019436,Charges Accept,,13-DEC-2017,1210,1004,XXXXXX,7530,2100,A201218,4625
173552,A00019436,Charges Accept,,13-DEC-2017,1210,1004,XXXXXX,7530,2100,A201218,4625
173552,A00019436,Charges Accept,,13-DEC-2017,1210,1004,XXXXXX,7530,2100,A201218,4625
173552,A00019436,Charges Accept,,13-DEC-2017,1210,1004,XXXXXX,7530,2100,A201218,4625
173552,A00019436,Charges Accept,,13-DEC-2017,1210,1004,XXXXXX,7530,2100,A201218,4625
173552,A00019436,Charges Accept,,13-DEC-2017,1210,1004,XXXXXX,7530,2100,A201218,4625
173552,A00019436,Charges Accept,,13-DEC-2017,1210,1004,XXXXXX,7530,2100,A201218,4625
173552,SC,Suzanne Carney,,13-DEC-2017,7530,2100,A201218,7531,2100,A201218,8994
173552,SC,Suzanne Carney,,13-DEC-2017,7530,2100,A201218,7531,2100,A201218,8994
173553,A00018666,Mary Hewitt,,14-DEC-2017,1210,1006,XXXXXX,7530,2100,A201218,3084
173553,A00018666,Mary Hewitt,,14-DEC-2017,1210,1006,XXXXXX,7530,2100,A201218,3084
173553,A00019367,Suzanne Iezzoni,,14-DEC-2017,1210,1006,XXXXXX,7530,2100,A201218,4035
173553,A00019367,Suzanne Iezzoni,,14-DEC-2017,1210,1006,XXXXXX,7530,2100,A201218,4035
173553,A00018747,PGStudent Perry,,14-DEC-2017,1220,1004,XXXXXX,7530,2100,A201218,13100
173553,A00018747,PGStudent Perry,,14-DEC-2017,1220,1004,XXXXXX,7530,2100,A201218,13100
173553,A00018747,PGStudent Perry,,14-DEC-2017,1430,1250,A123456,7530,2100,A201218,3337
173553,A00018747,PGStudent Perry,,14-DEC-2017,1430,1250,A123456,7530,2100,A201218,3337
173553,A00018747,PGStudent Perry,,14-DEC-2017,1430,1250,A123456,7530,2100,A201218,3337
173553,A00018747,PGStudent Perry,,14-DEC-2017,1430,1250,A123456,7530,2100,A201218,3337
173553,A00018747,PGStudent Perry,,14-DEC-2017,1430,1250,A123456,7530,2100,A201218,3337
173553,A00018747,PGStudent Perry,,14-DEC-2017,1430,1250,A123456,7530,2100,A201218,3337
173553,A00018747,PGStudent Perry,,14-DEC-2017,1430,1250,A123456,7530,2100,A201218,3337
173553,A00018747,PGStudent Perry,,14-DEC-2017,1430,1350,A123456,7530,2100,A201218,3337
173553,A00018747,PGStudent Perry,,14-DEC-2017,1430,1250,A123456,7530,2100,A201218,3337
173553,A00018747,PGStudent Perry,,14-DEC-2017,1430,1250,A123456,7530,2100,A201218,3337
173553,A00018747,PGStudent Perry,,14-DEC-2017,1430,1250,A123456,7530,2100,A201218,3337
173553,A00018747,PGStudent Perry,,14-DEC-2017,1430,1250,A123456,7530,2100,A201218,3337
173553,A00018747,PGStudent Perry,,14-DEC-2017,1430,1250,A123456,7530,2100,A201218,3337
173553,A00018747,PGStudent Perry,,14-DEC-2017,1430,1250,A123456,7530,2100,A201218,3337
173553,A00018747,PGStudent Perry,,14-DEC-2017,1430,1250,A123456,7530,2100,A201218,3337
173553,A00018747,PGStudent Perry,,14-DEC-2017,1430,1250,A123456,7530,2100,A201218,3337
173553,A00018747,PGStudent Perry,,14-DEC-2017,1430,1250,A123456,7530,2100,A201218,3287
173553,A00018747,PGStudent Perry,,14-DEC-2017,1430,1350,A123456,7530,2100,A201218,3287
173553,A00018747,PGStudent Perry,,14-DEC-2017,1430,1350,A123456,7530,2100,A201218,3287
173553,A00018747,PGStudent Perry,,14-DEC-2017,1430,1350,A123456,7530,2100,A201218,3287
173553,A00018747,PGStudent Perry,,14-DEC-2017,1430,1250,A123456,7530,2100,A201218,3287
173553,A00018747,PGStudent Perry,,14-DEC-2017,1430,1250,A123456,7530,2100,A201218,3287
173553,A00018747,PGStudent Perry,,14-DEC-2017,1430,1250,A123456,7530,2100,A201218,3287
173553,A00018747,PGStudent Perry,,14-DEC-2017,1430,1250,A123456,7530,2100,A201218,3287
173553,A00018747,PGStudent Perry,,14-DEC-2017,1430,1250,A123456,7530,2100,A201218,3287
173553,A00018747,PGStudent Perry,,14-DEC-2017,1430,1250,A123456,7530,2100,A201218,3287
173553,A00018747,PGStudent Perry,,14-DEC-2017,1430,1250,A123456,7530,2100,A201218,3287
173553,A00018747,PGStudent Perry,,14-DEC-2017,1430,1350,A123456,7530,2100,A201218,3287
173553,A00018747,PGStudent Perry,,14-DEC-2017,1430,1250,A123456,7530,2100,A201218,3287
173553,A00018747,PGStudent Perry,,14-DEC-2017,1430,1250,A123456,7530,2100,A201218,3287
173553,A00018747,PGStudent Perry,,14-DEC-2017,1430,1250,A123456,7530,2100,A201218,3287
173553,A00018747,PGStudent Perry,,14-DEC-2017,1430,1250,A123456,7530,2100,A201218,3287
173553,A00018746,Student1 Perry,,14-DEC-2017,1210,1004,XXXXXX,7530,2100,A201218,4625
173553,A00018746,Student1 Perry,,14-DEC-2017,1210,1004,XXXXXX,7530,2100,A201218,4625
173553,A00018746,Student1 Perry,,14-DEC-2017,1210,1004,XXXXXX,7530,2100,A201218,4625
173553,A00018746,Student1 Perry,,14-DEC-2017,1210,1004,XXXXXX,7530,2100,A201218,4625
173553,A00018746,Student1 Perry,,14-DEC-2017,1210,1004,XXXXXX,7530,2100,A201218,4625
173553,A00018746,Student1 Perry,,14-DEC-2017,1210,1004,XXXXXX,7530,2100,A201218,4625
173553,A00018746,Student1 Perry,,14-DEC-2017,1210,1004,XXXXXX,7530,2100,A201218,4625
173553,A00018746,Student1 Perry,,14-DEC-2017,1210,1004,XXXXXX,7530,2100,A201218,4625
173553,A00018746,Student1 Perry,,14-DEC-2017,1330,1250,A123456,7530,2100,A201218,2312
173553,A00018746,Student1 Perry,,14-DEC-2017,1330,1250,A123456,7530,2100,A201218,2312
173553,A00018746,Student1 Perry,,14-DEC-2017,1330,1250,A123456,7530,2100,A201218,2312
173553,A00018746,Student1 Perry,,14-DEC-2017,1330,1250,A123456,7530,2100,A201218,2312
173553,A00018746,Student1 Perry,,14-DEC-2017,1330,1250,A123456,7530,2100,A201218,2312
173553,A00018746,Student1 Perry,,14-DEC-2017,1330,1250,A123456,7530,2100,A201218,2312
173553,A00018746,Student1 Perry,,14-DEC-2017,1330,1250,A123456,7530,2100,A201218,2312
173553,A00018746,Student1 Perry,,14-DEC-2017,1330,1350,A123456,7530,2100,A201218,2312
173553,A00018746,Student1 Perry,,14-DEC-2017,1330,1250,A123456,7530,2100,A201218,2312
173553,A00018746,Student1 Perry,,14-DEC-2017,1330,1250,A123456,7530,2100,A201218,2312
173553,A00018746,Student1 Perry,,14-DEC-2017,1330,1250,A123456,7530,2100,A201218,2312
173553,A00018746,Student1 Perry,,14-DEC-2017,1330,1250,A123456,7530,2100,A201218,2312
173553,A00018746,Student1 Perry,,14-DEC-2017,1330,1250,A123456,7530,2100,A201218,2312
173553,A00018746,Student1 Perry,,14-DEC-2017,1330,1250,A123456,7530,2100,A201218,2312
173553,A00018746,Student1 Perry,,14-DEC-2017,1330,1250,A123456,7530,2100,A201218,2312
173553,A00018746,Student1 Perry,,14-DEC-2017,1330,1250,A123456,7530,2100,A201218,2312
173553,A00018645,BA Pry QTS Hons 05SEP2017 Test Student,,14-DEC-2017,1210,1006,XXXXXX,7530,2100,A201218,3084
173553,A00018645,BA Pry QTS Hons 05SEP2017 Test Student,,14-DEC-2017,1210,1006,XXXXXX,7530,2100,A201218,3084
173553,A00019044,Scheduling TESTMD2,,14-DEC-2017,1210,1006,XXXXXX,7530,2100,A201218,3084
173553,A00019044,Scheduling TESTMD2,,14-DEC-2017,1210,1006,XXXXXX,7530,2100,A201218,3084
173554,A00019428,Oscar Wilde,,23-JAN-2018,1210,1006,XXXXXX,7530,2100,A201218,3083
173554,A00019428,Oscar Wilde,,23-JAN-2018,1210,1006,XXXXXX,7530,2100,A201218,3083
173554,A00019433,Chocolate Bar,,23-JAN-2018,1210,1004,XXXXXX,7530,2100,A201218,4625
173554,A00019433,Chocolate Bar,,23-JAN-2018,1210,1004,XXXXXX,7530,2100,A201218,4625
173554,A00019433,Chocolate Bar,,23-JAN-2018,1210,1004,XXXXXX,7530,2100,A201218,4625
173554,A00019433,Chocolate Bar,,23-JAN-2018,1210,1004,XXXXXX,7530,2100,A201218,4625
173554,A00019433,Chocolate Bar,,23-JAN-2018,1210,1004,XXXXXX,7530,2100,A201218,4625
173554,A00019433,Chocolate Bar,,23-JAN-2018,1210,1004,XXXXXX,7530,2100,A201218,4625
173554,A00019433,Chocolate Bar,,23-JAN-2018,1210,1004,XXXXXX,7530,2100,A201218,4625
173554,A00019433,Chocolate Bar,,23-JAN-2018,1210,1004,XXXXXX,7530,2100,A201218,4625
173554,A00019433,Chocolate Bar,,23-JAN-2018,1210,1004,XXXXXX,7530,2100,A201218,4625
173554,A00019433,Chocolate Bar,,23-JAN-2018,1210,1004,XXXXXX,7530,2100,A201218,4625
173554,A00019433,Chocolate Bar,,23-JAN-2018,1210,1004,XXXXXX,7530,2100,A201218,4625
173554,A00019433,Chocolate Bar,,23-JAN-2018,1210,1004,XXXXXX,7530,2100,A201218,4625
173554,A00019433,Chocolate Bar,,23-JAN-2018,1210,1004,XXXXXX,7530,2100,A201218,4625
173554,A00019433,Chocolate Bar,,23-JAN-2018,1210,1004,XXXXXX,7530,2100,A201218,4625
173554,A00019433,Chocolate Bar,,23-JAN-2018,1210,1004,XXXXXX,7530,2100,A201218,4625
173554,A00019433,Chocolate Bar,,23-JAN-2018,1210,1004,XXXXXX,7530,2100,A201218,4625
173554,A00019431,Bear Polar,,23-JAN-2018,1210,1004,XXXXXX,7530,2100,A201218,4625
173554,A00019431,Bear Polar,,23-JAN-2018,1210,1004,XXXXXX,7530,2100,A201218,4625
173554,A00019431,Bear Polar,,23-JAN-2018,1210,1004,XXXXXX,7530,2100,A201218,4625
173554,A00019431,Bear Polar,,23-JAN-2018,1210,1004,XXXXXX,7530,2100,A201218,4625
173554,A00019431,Bear Polar,,23-JAN-2018,1210,1004,XXXXXX,7530,2100,A201218,4625
173554,A00019431,Bear Polar,,23-JAN-2018,1210,1004,XXXXXX,7530,2100,A201218,4625
173554,A00019431,Bear Polar,,23-JAN-2018,1210,1004,XXXXXX,7530,2100,A201218,4625
173554,A00019431,Bear Polar,,23-JAN-2018,1210,1004,XXXXXX,7530,2100,A201218,4625
173554,A00019431,Bear Polar,,23-JAN-2018,1210,1004,XXXXXX,7530,2100,A201218,4625
173554,A00019431,Bear Polar,,23-JAN-2018,1210,1004,XXXXXX,7530,2100,A201218,4625
173554,A00019431,Bear Polar,,23-JAN-2018,1210,1004,XXXXXX,7530,2100,A201218,4625
173554,A00019431,Bear Polar,,23-JAN-2018,1210,1004,XXXXXX,7530,2100,A201218,4625
173554,A00019431,Bear Polar,,23-JAN-2018,1210,1004,XXXXXX,7530,2100,A201218,4625
173554,A00019431,Bear Polar,,23-JAN-2018,1210,1004,XXXXXX,7530,2100,A201218,4625
173554,A00019431,Bear Polar,,23-JAN-2018,1210,1004,XXXXXX,7530,2100,A201218,4625
173554,A00019431,Bear Polar,,23-JAN-2018,1210,1004,XXXXXX,7530,2100,A201218,4625
173554,A00019429,O Fortuna,,23-JAN-2018,1210,1004,XXXXXX,7530,2100,A201218,4625
173554,A00019429,O Fortuna,,23-JAN-2018,1210,1004,XXXXXX,7530,2100,A201218,4625
173554,A00019429,O Fortuna,,23-JAN-2018,1210,1004,XXXXXX,7530,2100,A201218,4625
173554,A00019429,O Fortuna,,23-JAN-2018,1210,1004,XXXXXX,7530,2100,A201218,4625
173554,A00019429,O Fortuna,,23-JAN-2018,1210,1004,XXXXXX,7530,2100,A201218,4625
173554,A00019429,O Fortuna,,23-JAN-2018,1210,1004,XXXXXX,7530,2100,A201218,4625
173554,A00019429,O Fortuna,,23-JAN-2018,1210,1004,XXXXXX,7530,2100,A201218,4625
173554,A00019429,O Fortuna,,23-JAN-2018,1210,1004,XXXXXX,7530,2100,A201218,4625
173554,A00019429,O Fortuna,,23-JAN-2018,1210,1004,XXXXXX,7530,2100,A201218,4625
173554,A00019429,O Fortuna,,23-JAN-2018,1210,1004,XXXXXX,7530,2100,A201218,4625
173554,A00019429,O Fortuna,,23-JAN-2018,1210,1004,XXXXXX,7530,2100,A201218,4625
173554,A00019429,O Fortuna,,23-JAN-2018,1210,1004,XXXXXX,7530,2100,A201218,4625
173554,A00019429,O Fortuna,,23-JAN-2018,1210,1004,XXXXXX,7530,2100,A201218,4625
173554,A00019429,O Fortuna,,23-JAN-2018,1210,1004,XXXXXX,7530,2100,A201218,4625
173554,A00019429,O Fortuna,,23-JAN-2018,1210,1004,XXXXXX,7530,2100,A201218,4625
173554,A00019429,O Fortuna,,23-JAN-2018,1210,1004,XXXXXX,7530,2100,A201218,4625
173554,A00019428,Oscar Wilde,,23-JAN-2018,1240,1004,XXXXXX,7530,2100,A201218,1500
173554,A00019428,Oscar Wilde,,23-JAN-2018,1240,1004,XXXXXX,7530,2100,A201218,1500
173554,A00019428,Oscar Wilde,,23-JAN-2018,1240,1004,XXXXXX,7530,2100,A201218,21000
173554,A00019428,Oscar Wilde,,23-JAN-2018,1240,1004,XXXXXX,7530,2100,A201218,21000
173554,A00019436,Charges Accept,,23-JAN-2018,1210,1004,XXXXXX,7530,2100,A201218,4625
173554,A00019436,Charges Accept,,23-JAN-2018,1210,1004,XXXXXX,7530,2100,A201218,4625
173554,A00019436,Charges Accept,,23-JAN-2018,1210,1004,XXXXXX,7530,2100,A201218,4625
173554,A00019436,Charges Accept,,23-JAN-2018,1210,1004,XXXXXX,7530,2100,A201218,4625
173554,A00019436,Charges Accept,,23-JAN-2018,1210,1004,XXXXXX,7530,2100,A201218,4625
173554,A00019436,Charges Accept,,23-JAN-2018,1210,1004,XXXXXX,7530,2100,A201218,4625
173554,A00019436,Charges Accept,,23-JAN-2018,1210,1004,XXXXXX,7530,2100,A201218,4625
173554,A00019436,Charges Accept,,23-JAN-2018,1210,1004,XXXXXX,7530,2100,A201218,4625
173554,A00019428,Oscar Wilde,,23-JAN-2018,1210,1006,XXXXXX,7530,2100,A201218,3083
173554,A00019428,Oscar Wilde,,23-JAN-2018,1210,1006,XXXXXX,7530,2100,A201218,3083
173554,A00019428,Oscar Wilde,,23-JAN-2018,1240,1004,XXXXXX,7530,2100,A201218,22500
173554,A00019428,Oscar Wilde,,23-JAN-2018,1240,1004,XXXXXX,7530,2100,A201218,22500
173555,A00019428,Oscar Wilde,,11-APR-2018,1210,1006,XXXXXX,7530,2100,A201218,10500
173555,A00019428,Oscar Wilde,,11-APR-2018,1210,1006,XXXXXX,7530,2100,A201218,10500
173555,A00019428,Oscar Wilde,,11-APR-2018,1210,1006,XXXXXX,7530,2100,A201218,1
173555,A00019428,Oscar Wilde,,11-APR-2018,1210,1006,XXXXXX,7530,2100,A201218,1
173555,A00019428,Oscar Wilde,,11-APR-2018,1210,1006,XXXXXX,7530,2100,A201218,3084
173555,A00019428,Oscar Wilde,,11-APR-2018,1210,1006,XXXXXX,7530,2100,A201218,3084
173555,A00019428,Oscar Wilde,,11-APR-2018,1210,1006,XXXXXX,7530,2100,A201218,8167
173555,A00019428,Oscar Wilde,,11-APR-2018,1210,1006,XXXXXX,7530,2100,A201218,8167
173556,A00019428,Oscar Wilde,,03-MAY-2018,1210,1006,XXXXXX,7530,2100,A201218,750
173556,A00019428,Oscar Wilde,,03-MAY-2018,1210,1006,XXXXXX,7530,2100,A201218,750
173559,A00019428,Oscar Wilde,,13-DEC-2017,1210,1006,XXXXXX,7530,2100,A201218,3084
173559,A00019428,Oscar Wilde,,13-DEC-2017,1210,1006,XXXXXX,7530,2100,A201218,3084
173559,A00019428,Oscar Wilde,,13-DEC-2017,1240,1004,XXXXXX,7530,2100,A201218,10500
173559,A00019428,Oscar Wilde,,13-DEC-2017,1240,1004,XXXXXX,7530,2100,A201218,10500
173559,A00019428,Oscar Wilde,,13-DEC-2017,1210,1006,XXXXXX,7530,2100,A201218,3083
173559,A00019428,Oscar Wilde,,13-DEC-2017,1210,1006,XXXXXX,7530,2100,A201218,3083
173559,A00019428,Oscar Wilde,,13-DEC-2017,1240,1004,XXXXXX,7530,2100,A201218,21000
173559,A00019428,Oscar Wilde,,13-DEC-2017,1240,1004,XXXXXX,7530,2100,A201218,21000
173559,A00019428,Oscar Wilde,,13-DEC-2017,1210,1006,XXXXXX,7530,2100,A201218,1
173559,A00019428,Oscar Wilde,,13-DEC-2017,1210,1006,XXXXXX,7530,2100,A201218,1
173559,A00019428,Oscar Wilde,,13-DEC-2017,1210,1006,XXXXXX,7530,2100,A201218,3083
173559,A00019428,Oscar Wilde,,13-DEC-2017,1210,1006,XXXXXX,7530,2100,A201218,3083
173559,A00019428,Oscar Wilde,,13-DEC-2017,1210,1006,XXXXXX,7530,2100,A201218,7417
173559,A00019428,Oscar Wilde,,13-DEC-2017,1210,1006,XXXXXX,7530,2100,A201218,7417
173559,A00019428,Oscar Wilde,,13-DEC-2017,7530,2100,A201218,7531,2100,A201218,750
173559,A00019428,Oscar Wilde,,13-DEC-2017,1240,1004,XXXXXX,7530,2100,A201218,750
173559,A00019428,Oscar Wilde,,13-DEC-2017,7530,2100,A201218,7531,2100,A201218,1500
173559,A00019428,Oscar Wilde,,13-DEC-2017,1240,1004,XXXXXX,7530,2100,A201218,1500
173559,A00019428,Oscar Wilde,,13-DEC-2017,1210,1006,XXXXXX,7530,2100,A201218,3084
173559,A00019428,Oscar Wilde,,13-DEC-2017,1210,1006,XXXXXX,7530,2100,A201218,3084
173559,A00019428,Oscar Wilde,,13-DEC-2017,1210,1006,XXXXXX,7530,2100,A201218,3083
173559,A00019428,Oscar Wilde,,13-DEC-2017,1210,1006,XXXXXX,7530,2100,A201218,3083
173559,A00019428,Oscar Wilde,,13-DEC-2017,1210,1006,XXXXXX,7530,2100,A201218,1
173559,A00019428,Oscar Wilde,,13-DEC-2017,1210,1006,XXXXXX,7530,2100,A201218,1
173559,A00019428,Oscar Wilde,,13-DEC-2017,1210,1006,XXXXXX,7530,2100,A201218,3083
173559,A00019428,Oscar Wilde,,13-DEC-2017,1210,1006,XXXXXX,7530,2100,A201218,3083
173559,A00019428,Oscar Wilde,,13-DEC-2017,1240,1004,XXXXXX,7530,2100,A201218,10500
173559,A00019428,Oscar Wilde,,13-DEC-2017,1240,1004,XXXXXX,7530,2100,A201218,10500
173559,A00019428,Oscar Wilde,,13-DEC-2017,1240,1004,XXXXXX,7530,2100,A201218,750
173559,A00019428,Oscar Wilde,,13-DEC-2017,7530,2100,A201218,7531,2100,A201218,750
173559,A00019428,Oscar Wilde,,13-DEC-2017,1240,1004,XXXXXX,7530,2100,A201218,21000
173559,A00019428,Oscar Wilde,,13-DEC-2017,1240,1004,XXXXXX,7530,2100,A201218,21000
173559,A00019428,Oscar Wilde,,13-DEC-2017,1240,1004,XXXXXX,7530,2100,A201218,1500
173559,A00019428,Oscar Wilde,,13-DEC-2017,7530,2100,A201218,7531,2100,A201218,1500
173559,A00019428,Oscar Wilde,,13-DEC-2017,1210,1006,XXXXXX,7530,2100,A201218,7417
173559,A00019428,Oscar Wilde,,13-DEC-2017,1210,1006,XXXXXX,7530,2100,A201218,7417
173559,A00019428,Oscar Wilde,,13-DEC-2017,1210,1006,XXXXXX,7530,2100,A201218,3084
173559,A00019428,Oscar Wilde,,13-DEC-2017,1210,1006,XXXXXX,7530,2100,A201218,3084
173559,A00019428,Oscar Wilde,,13-DEC-2017,1240,1004,XXXXXX,7530,2100,A201218,10500
173559,A00019428,Oscar Wilde,,13-DEC-2017,1240,1004,XXXXXX,7530,2100,A201218,10500
173559,A00019428,Oscar Wilde,,13-DEC-2017,1210,1006,XXXXXX,7530,2100,A201218,3083
173559,A00019428,Oscar Wilde,,13-DEC-2017,1210,1006,XXXXXX,7530,2100,A201218,3083
173559,A00019428,Oscar Wilde,,13-DEC-2017,1240,1004,XXXXXX,7530,2100,A201218,21000
173559,A00019428,Oscar Wilde,,13-DEC-2017,1240,1004,XXXXXX,7530,2100,A201218,21000
173559,A00019428,Oscar Wilde,,13-DEC-2017,1240,1004,XXXXXX,7530,2100,A201218,1500
173559,A00019428,Oscar Wilde,,13-DEC-2017,1240,1004,XXXXXX,7530,2100,A201218,1500
173559,A00019428,Oscar Wilde,,13-DEC-2017,1210,1006,XXXXXX,7530,2100,A201218,1
173559,A00019428,Oscar Wilde,,13-DEC-2017,1210,1006,XXXXXX,7530,2100,A201218,1
173559,A00019428,Oscar Wilde,,13-DEC-2017,1210,1006,XXXXXX,7530,2100,A201218,3083
173559,A00019428,Oscar Wilde,,13-DEC-2017,1210,1006,XXXXXX,7530,2100,A201218,3083
173559,A00019428,Oscar Wilde,,13-DEC-2017,1210,1006,XXXXXX,7530,2100,A201218,7417
173559,A00019428,Oscar Wilde,,13-DEC-2017,1210,1006,XXXXXX,7530,2100,A201218,7417
173559,A00019428,Oscar Wilde,,13-DEC-2017,1210,1006,XXXXXX,7530,2100,A201218,750
173559,A00019428,Oscar Wilde,,13-DEC-2017,1210,1006,XXXXXX,7530,2100,A201218,750
173559,A00019428,Oscar Wilde,,13-DEC-2017,7530,2100,A201218,7531,2100,A201218,750
173559,A00019428,Oscar Wilde,,13-DEC-2017,1240,1004,XXXXXX,7530,2100,A201218,750
173559,A00018746,Student1 Perry,,14-DEC-2017,1330,1250,A123456,7530,2100,A201218,2312
173559,A00018746,Student1 Perry,,14-DEC-2017,1330,1250,A123456,7530,2100,A201218,2312
173559,A00018746,Student1 Perry,,14-DEC-2017,1330,1250,A123456,7530,2100,A201218,2312
173559,A00018746,Student1 Perry,,14-DEC-2017,1330,1250,A123456,7530,2100,A201218,2312
173559,A00018746,Student1 Perry,,14-DEC-2017,1330,1250,A123456,7530,2100,A201218,2312
173559,A00018746,Student1 Perry,,14-DEC-2017,1330,1350,A123456,7530,2100,A201218,2312
173559,A00018746,Student1 Perry,,14-DEC-2017,1330,1350,A123456,7530,2100,A201218,2312
173559,A00018746,Student1 Perry,,14-DEC-2017,1330,1350,A123456,7530,2100,A201218,2312
173559,A00018746,Student1 Perry,,14-DEC-2017,1330,1250,A123456,7530,2100,A201218,2312
173559,A00018746,Student1 Perry,,14-DEC-2017,1330,1250,A123456,7530,2100,A201218,2312
173559,A00018746,Student1 Perry,,14-DEC-2017,1330,1250,A123456,7530,2100,A201218,2312
173559,A00018746,Student1 Perry,,14-DEC-2017,1330,1250,A123456,7530,2100,A201218,2312
173559,A00018746,Student1 Perry,,14-DEC-2017,1330,1250,A123456,7530,2100,A201218,2312
173559,A00018746,Student1 Perry,,14-DEC-2017,1330,1250,A123456,7530,2100,A201218,2312
173559,A00018746,Student1 Perry,,14-DEC-2017,1330,1250,A123456,7530,2100,A201218,2312
173559,A00018746,Student1 Perry,,14-DEC-2017,1330,1350,A123456,7530,2100,A201218,2312
173559,A00018747,PGStudent Perry,,14-DEC-2017,1430,1250,A123456,7530,2100,A201218,3287
173559,A00018747,PGStudent Perry,,14-DEC-2017,1430,1250,A123456,7530,2100,A201218,3287
173559,A00018747,PGStudent Perry,,14-DEC-2017,1430,1250,A123456,7530,2100,A201218,3287
173559,A00018747,PGStudent Perry,,14-DEC-2017,1430,1250,A123456,7530,2100,A201218,3287
173559,A00018747,PGStudent Perry,,14-DEC-2017,1430,1250,A123456,7530,2100,A201218,3287
173559,A00018747,PGStudent Perry,,14-DEC-2017,1430,1250,A123456,7530,2100,A201218,3287
173559,A00018747,PGStudent Perry,,14-DEC-2017,1430,1250,A123456,7530,2100,A201218,3287
173559,A00018747,PGStudent Perry,,14-DEC-2017,1430,1250,A123456,7530,2100,A201218,3287
173559,A00018747,PGStudent Perry,,14-DEC-2017,1430,1250,A123456,7530,2100,A201218,3287
173559,A00018747,PGStudent Perry,,14-DEC-2017,1430,1350,A123456,7530,2100,A201218,3287
173559,A00018747,PGStudent Perry,,14-DEC-2017,1430,1350,A123456,7530,2100,A201218,3287
173559,A00018747,PGStudent Perry,,14-DEC-2017,1430,1350,A123456,7530,2100,A201218,3287
173559,A00018747,PGStudent Perry,,14-DEC-2017,1430,1250,A123456,7530,2100,A201218,3287
173559,A00018747,PGStudent Perry,,14-DEC-2017,1430,1250,A123456,7530,2100,A201218,3287
173559,A00018747,PGStudent Perry,,14-DEC-2017,1430,1250,A123456,7530,2100,A201218,3287
173559,A00018747,PGStudent Perry,,14-DEC-2017,1430,1250,A123456,7530,2100,A201218,3287
173559,A00018747,PGStudent Perry,,14-DEC-2017,1430,1250,A123456,7530,2100,A201218,50
173559,A00018747,PGStudent Perry,,14-DEC-2017,1430,1250,A123456,7530,2100,A201218,50
173559,A00018747,PGStudent Perry,,14-DEC-2017,1430,1250,A123456,7530,2100,A201218,50
173559,A00018747,PGStudent Perry,,14-DEC-2017,1430,1350,A123456,7530,2100,A201218,50
173559,A00018747,PGStudent Perry,,14-DEC-2017,1430,1250,A123456,7530,2100,A201218,50
173559,A00018747,PGStudent Perry,,14-DEC-2017,1430,1250,A123456,7530,2100,A201218,50
173559,A00018747,PGStudent Perry,,14-DEC-2017,1430,1250,A123456,7530,2100,A201218,50
173559,A00018747,PGStudent Perry,,14-DEC-2017,1430,1250,A123456,7530,2100,A201218,50
173559,A00018747,PGStudent Perry,,14-DEC-2017,1430,1250,A123456,7530,2100,A201218,50
173559,A00018747,PGStudent Perry,,14-DEC-2017,1430,1250,A123456,7530,2100,A201218,50
173559,A00018747,PGStudent Perry,,14-DEC-2017,1430,1250,A123456,7530,2100,A201218,50
173559,A00018747,PGStudent Perry,,14-DEC-2017,1430,1250,A123456,7530,2100,A201218,50
173559,A00018747,PGStudent Perry,,14-DEC-2017,1430,1250,A123456,7530,2100,A201218,50
173559,A00018747,PGStudent Perry,,14-DEC-2017,1430,1350,A123456,7530,2100,A201218,50
173559,A00018747,PGStudent Perry,,14-DEC-2017,1430,1350,A123456,7530,2100,A201218,50
173559,A00018747,PGStudent Perry,,14-DEC-2017,1430,1350,A123456,7530,2100,A201218,50
173559,A00018747,PGStudent Perry,,14-DEC-2017,1430,1250,A123456,7530,2100,A201218,3287
173559,A00018747,PGStudent Perry,,14-DEC-2017,1430,1250,A123456,7530,2100,A201218,3287
173559,A00018747,PGStudent Perry,,14-DEC-2017,1430,1250,A123456,7530,2100,A201218,3287
173559,A00018747,PGStudent Perry,,14-DEC-2017,1430,1250,A123456,7530,2100,A201218,3287
173559,A00018747,PGStudent Perry,,14-DEC-2017,1430,1250,A123456,7530,2100,A201218,3287
173559,A00018747,PGStudent Perry,,14-DEC-2017,1430,1250,A123456,7530,2100,A201218,3287
173559,A00018747,PGStudent Perry,,14-DEC-2017,1430,1250,A123456,7530,2100,A201218,3287
173559,A00018747,PGStudent Perry,,14-DEC-2017,1430,1350,A123456,7530,2100,A201218,3287
173559,A00018747,PGStudent Perry,,14-DEC-2017,1430,1250,A123456,7530,2100,A201218,3287
173559,A00018747,PGStudent Perry,,14-DEC-2017,1430,1250,A123456,7530,2100,A201218,3287
173559,A00018747,PGStudent Perry,,14-DEC-2017,1430,1250,A123456,7530,2100,A201218,3287
173559,A00018747,PGStudent Perry,,14-DEC-2017,1430,1250,A123456,7530,2100,A201218,3287
173559,A00018747,PGStudent Perry,,14-DEC-2017,1430,1250,A123456,7530,2100,A201218,3287
173559,A00018747,PGStudent Perry,,14-DEC-2017,1430,1250,A123456,7530,2100,A201218,3287
173559,A00018747,PGStudent Perry,,14-DEC-2017,1430,1250,A123456,7530,2100,A201218,3287
173559,A00018747,PGStudent Perry,,14-DEC-2017,1430,1250,A123456,7530,2100,A201218,3287
173559,A00019429,O Fortuna,,14-DEC-2017,1210,1004,XXXXXX,7530,2100,A201218,4625
173559,A00019429,O Fortuna,,14-DEC-2017,1210,1004,XXXXXX,7530,2100,A201218,4625
173559,A00019429,O Fortuna,,14-DEC-2017,1210,1004,XXXXXX,7530,2100,A201218,4625
173559,A00019429,O Fortuna,,14-DEC-2017,1210,1004,XXXXXX,7530,2100,A201218,4625
173559,A00019429,O Fortuna,,14-DEC-2017,1210,1004,XXXXXX,7530,2100,A201218,4625
173559,A00019429,O Fortuna,,14-DEC-2017,1210,1004,XXXXXX,7530,2100,A201218,4625
173559,A00019429,O Fortuna,,14-DEC-2017,1210,1004,XXXXXX,7530,2100,A201218,4625
173559,A00019429,O Fortuna,,14-DEC-2017,1210,1004,XXXXXX,7530,2100,A201218,4625
173559,A00019435,Family International,,14-DEC-2017,1210,1004,XXXXXX,7530,2100,A201218,4625
173559,A00019435,Family International,,14-DEC-2017,1210,1004,XXXXXX,7530,2100,A201218,4625
173559,A00019435,Family International,,14-DEC-2017,1210,1004,XXXXXX,7530,2100,A201218,4625
173559,A00019435,Family International,,14-DEC-2017,1210,1004,XXXXXX,7530,2100,A201218,4625
173559,A00019435,Family International,,14-DEC-2017,1210,1004,XXXXXX,7530,2100,A201218,4625
173559,A00019435,Family International,,14-DEC-2017,1210,1004,XXXXXX,7530,2100,A201218,4625
173559,A00019435,Family International,,14-DEC-2017,1210,1004,XXXXXX,7530,2100,A201218,4625
173559,A00019435,Family International,,14-DEC-2017,1210,1004,XXXXXX,7530,2100,A201218,4625
173559,A00019431,Bear Polar,,13-DEC-2017,1210,1004,XXXXXX,7530,2100,A201218,4625
173559,A00019431,Bear Polar,,13-DEC-2017,1210,1004,XXXXXX,7530,2100,A201218,4625
173559,A00019431,Bear Polar,,13-DEC-2017,1210,1004,XXXXXX,7530,2100,A201218,4625
173559,A00019431,Bear Polar,,13-DEC-2017,1210,1004,XXXXXX,7530,2100,A201218,4625
173559,A00019431,Bear Polar,,13-DEC-2017,1210,1004,XXXXXX,7530,2100,A201218,4625
173559,A00019431,Bear Polar,,13-DEC-2017,1210,1004,XXXXXX,7530,2100,A201218,4625
173559,A00019431,Bear Polar,,13-DEC-2017,1210,1004,XXXXXX,7530,2100,A201218,4625
173559,A00019431,Bear Polar,,13-DEC-2017,1210,1004,XXXXXX,7530,2100,A201218,4625
173559,A00019433,Chocolate Bar,,13-DEC-2017,1210,1004,XXXXXX,7530,2100,A201218,4625
173559,A00019433,Chocolate Bar,,13-DEC-2017,1210,1004,XXXXXX,7530,2100,A201218,4625
173559,A00019433,Chocolate Bar,,13-DEC-2017,1210,1004,XXXXXX,7530,2100,A201218,4625
173559,A00019433,Chocolate Bar,,13-DEC-2017,1210,1004,XXXXXX,7530,2100,A201218,4625
173559,A00019433,Chocolate Bar,,13-DEC-2017,1210,1004,XXXXXX,7530,2100,A201218,4625
173559,A00019433,Chocolate Bar,,13-DEC-2017,1210,1004,XXXXXX,7530,2100,A201218,4625
173559,A00019433,Chocolate Bar,,13-DEC-2017,1210,1004,XXXXXX,7530,2100,A201218,4625
173559,A00019433,Chocolate Bar,,13-DEC-2017,1210,1004,XXXXXX,7530,2100,A201218,4625
